<svg xmlns="http://www.w3.org/2000/svg" viewBox="2682 362 24 24">
  <g transform="translate(2682 362)">
    <rect style="fill: none;" width="24" height="24"/>
    <line style="fill:none; stroke: #fff; stroke-width:2px" x2="12" transform="translate(6.5 18.5)"/>
  </g>
</svg>
